# clave|nombre|orden|global/local|sistema|Descripción
inscribir_contrato|Inscribir contratos|1|global|Maíz|Permite ingresar a la pantalla registro de contratos en maíz y realizar la captura de un contrato.
asignar_inscripcion|Asignar contratos, productores y facturas|2|global|Cultivos|Permite ingresar a la pantalla asignación en cultivos y asignar un usuario validador a los registros de contratos, productores y/o facturas.
maiz_corregir_inscripcion|Corregir contratos, productores y facturas|3|global|Maíz|Permite ingresar a la pantalla capturas en maíz, en donde se puede editar, documentar o corregir un registro.
validar_inscripcion|Validar contratos, productores y facturas|4|global|Cultivos|Permite ingresar a la pantalla monitoreo para realizar la validación de registros.
administrar_usuarios|Administrar usuarios|5|global|Administración|Permite ingresar a la pantalla administración de usuarios para crear o modificar usuarios.
administrar_permisos|Administrar permisos|6|global|Administración|Permite ingresar a la pantalla administración de permisos y asignar o quitar permisos a los usuarios.
maiz_consultar_contratos_global|Consultar contratos|7|global|Maíz|Permite ingresar a la pantalla consulta de contratos en Maíz y poder visualizar todos los registros de todas las empresas.
maiz_consultar_contratos_empresa|Consultar contratos por empresa|8|global|Maíz|Permite ingresar a la pantalla consulta de contratos en Maíz y poder visualizar los registros solo de la empresa a la que pertenece el usuario.
maiz_consultar_contratos_sucursal|Consulta contratos por sucursal|9|global|Maíz|Permite ingresar a la pantalla consulta de contratos en Maíz y poder visualizar los registros solo de la sucursal a la que pertenece el usuario.
administrar_contrato|Administrar contratos|10|global|Cultivos|Permite ingresar a la pantalla administración en Cultivos y poder permitir modificaciones a contratos, productores y/o facturas.
inscribir_productor|Inscribir productores|11|global|Maíz|Permite ingresar a la pantalla registro de productor en Maíz y realizar la captura de un productor.
maiz_consultar_productores_global|Consultar productores|12|global|Maíz|Permite ingresar a la pantalla consulta de productores en Maíz y poder visualizar todos los registros de todas las empresas.
maiz_consultar_productores_empresa|Consultar productores por empresa|13|global|Maíz|Permite ingresar a la pantalla consulta de productores en Maíz y poder visualizar los registros solo de la empresa a la que pertenece el usuario.
maiz_consultar_productores_sucursal|Consultar productores por sucursal|14|global|Maíz|Permite ingresar a la pantalla consulta de productores en Maíz y poder visualizar los registros solo de la sucursal a la que pertenece el usuario.
maiz_consultar_facturas_global|Consultar facturas|15|global|Maíz|Permite ingresar a la pantalla consulta de facturas en Maíz y poder visualizar todos los registros de todas las empresas.
maiz_consultar_facturas_empresa|Consultar facturas por empresa|16|global|Maíz|Permite ingresar a la pantalla consulta de facturas en Maíz y poder visualizar los registros solo de la empresa a la que pertenece el usuario.
maiz_consultar_facturas_sucursal|Consultar facturas por sucursal|17|global|Maíz|Permite ingresar a la pantalla consulta de facturas en Maíz y poder visualizar los registros solo de la sucursal a la que pertenece el usuario.
inscribir_factura|Inscribir facturas|18|global|Maíz|Permite ingresar a la pantalla registro de factura en Maíz y realizar la captura de cualquier tipo de factura.
realizar_pagos|Realizar pagos|19|global|Cultivos|Permite ingresar a la pantalla pagos en Cultivos y generar un nuevo requerimiento de pago.
inscribir_factura_empresa|Inscribir facturas de empresa|20|global|Maíz|Permite ingresar a la pantalla facturas empresa en Maíz y realizar el registro de un nuevo documento o factura empresa.
registrar_ventanilla_basica|Registrar ventanilla básica|21|global|Cultivos|Permite ingresar a la pantalla registro de ventanilla básico y poder generar un registro básico de ventanillas.
consultar_pre_registro|Consultar pre registro|22|global|Maíz|Permite ingresar a la pantalla consulta pre registro de productor Maíz y consultar y/o exportar los registros generados en el pre registro.
asignar_empresa|Asignar ventanillas|23|global|Cultivos|Permite ingresar a la pantalla asignación de participantes y poder asignar un usuario validador a los registros de participantes.
validar_empresa|Validar ventanillas|24|global|Cultivos|Permite ingresar a la pantalla monitoreo participantes y realizar la validación de los registros participantes.
maiz_editar_pre_registro|Editar Pre Registro|25|global|Maíz|Permite ingresar a la pantalla edición pre registro productor en Maíz y poder realizar modificaciones sobre los pre registros.
consultar_ventanilla|Consultar Ventanilla|26|global|Cultivos|Permite ingresar a la pantalla consulta de participantes en Cultivos y consultar y/o exportar los registros de participantes.
arroz_consultar_pre_registro|Consultar pre registro|27|global|Arroz|Permite ingresar a la pantalla consulta de pre registro de productor en Arroz y consultar y/o exportar los pre registros.
consultar_seguimiento_productor|Consultar seguimiento productor|28|global|Cultivos|Permite ingresar a la pantalla seguimiento de productor en Cultivos y poder consultar toda la información de un productor validado positivamente.
administrar_empresa|Administrar Empresa|29|global|Cultivos|Permite ingresar a la pantalla empresar en Cultivos y poder dar de alta empresas y sus sucursales.
arroz_inscribir_productor|Inscribir productores|30|global|Arroz|Permite ingresar a la pantalla registro de productor en Arroz y realizar la captura de un productor.
trigo_inscribir_contrato|Inscribir contrato|31|global|Trigo|Permite ingresar a la pantalla registro de contratos en Trigo y realizar la captura de un contrato.
trigo_inscribir_productor|Inscribir productores|32|global|Trigo|Permite ingresar a la pantalla registro de productor en Trigo y realizar la captura de un productor.
trigo_consultar_productores_global|Consultar productores|33|global|Trigo|Permite ingresar a la pantalla consulta de productores en Trigo y poder visualizar todos los registros de todas las empresas.
trigo_consultar_productores_empresa|Consultar productores por empresa|34|global|Trigo|Permite ingresar a la pantalla consulta de productores en Trigo y poder visualizar los registros solo de la empresa a la que pertenece el usuario.
trigo_consultar_productores_sucursal|Consultar productores por sucursal|35|global|Trigo|Permite ingresar a la pantalla consulta de productores en Trigo y poder visualizar los registros solo de la sucursal a la que pertenece el usuario.
arroz_consultar_productores_global|Consultar productores|36|global|Arroz|Permite ingresar a la pantalla consulta de productores en Arroz y poder visualizar todos los registros de todas las empresas.
arroz_consultar_productores_empresa|Consultar productores por empresa|37|global|Arroz|Permite ingresar a la pantalla consulta de productores en Arroz y poder visualizar los registros solo de la empresa a la que pertenece el usuario.
arroz_consultar_productores_sucursal|Consultar productores por sucursal|38|global|Arroz|Permite ingresar a la pantalla consulta de productores en Arroz y poder visualizar los registros solo de la sucursal a la que pertenece el usuario.
registrar_transaccion_interinstitucional|Registrar transacción interinstitucional|39|local|Interinstitucional|Permite ingresar a la pantalla de registro institucional y realizar un registro.
validar_transaccion_interinstitucional|Validar transacción interinstitucional|40|local|Interinstitucional|Permite ingresar a la pantalla de validacion interinstitucional y validar registros.
arroz_corregir_inscripcion|Corregir productores y facturas|41|global|Arroz|Permite corregir un registro en la pantalla de capturas Arroz.
trigo_corregir_inscripcion|Corregir contratos, productores y facturas|42|global|Trigo|Permite corregir un registro en la pantalla de capturas Trigo.
consultar_transacciones|Consultar transacciones|43|ambas|Interinstitucional|Permite consultar registros en la pantalla de consultas de Transacciones.
modificar_transaccion|Modificar transacción|44|local|Interinstitucional|Permite la edición de un registro institucional.
trigo_consultar_contratos_global|Consultar contratos|45|global|Trigo|Permite consultar contratos de  de Trigo a nivel global.
trigo_consultar_contratos_empresa|Consultar contratos por empresa|46|global|Trigo|Permite consultar contratos de Trigo a nivel empresa.
trigo_consultar_contratos_sucursal|Consultar contratos por sucursal|47|global|Trigo|Permite consultar contratos de Trigo a nivel sucursal.
cargar_archivo|Cargar archivos|48|global|Cultivos|Permite subir un archivo en la pantalla de Archivos.
trigo_inscribir_factura|Inscribir facturas|49|global|Trigo|Permite ingresar y registrar una factura en la pantalla Iscripción factura de Trigo.
trigo_consultar_facturas_global|Consultar facturas|50|global|Trigo|Permite consultar facturas de  de Trigo a nivel global.
trigo_consultar_facturas_empresa|Consultar facturas por empresa|51|global|Trigo|Permite consultar facturas de  de Trigo a nivel empresa.
trigo_consultar_facturas_sucursal|Consultar facturas por sucursal|52|global|Trigo|Permite consultar facturas de  de Trigo a nivel sucursal.
arroz_inscribir_factura|Inscribir facturas|53|global|Arroz|Permite ingresar y registrar una factura en la pantalla Iscripción factura de Arroz.
arroz_consultar_facturas_global|Consultar facturas|54|global|Arroz|Permite consultar facturas de  de Arroz a nivel global.
arroz_consultar_facturas_empresa|Consultar facturas por empresa|55|global|Arroz|Permite consultar facturas de  de Arroz a nivel empresa.
arroz_consultar_facturas_sucursal|Consultar facturas por sucursal|56|global|Arroz|Permite consultar facturas de  de Arroz a nivel sucursal.
arroz_editar_pre_registro|Editar Pre Registro|57|global|Arroz|Permite la edición de un registro de Arroz en la pantalla de capturas.
registrar_excepcion_rfc|Registrar excepción RFC|58|global|Cultivos|Permite registrar un RFC para excepción en la pantalla de Excepción RFC.
registrar_excepcion_factura|Registrar excepción factura|58|global|Cultivos|Permite registrar una factura para excepción en la pantalla de Excepción factura.
maiz_exportar_contratos_xlsx|Exportar contratos (xlsx)|59|global|Maíz|Permite la descarga del reporte de contratos en la pantalla de consultas contratos de Maíz.
maiz_exportar_productores_xlsx|Exportar productores (xlsx)|60|global|Maíz|Permite la descarga del reporte de productores en la pantalla de consultas productor de Maíz.
maiz_exportar_facturas_xlsx|Exportar facturas (xlsx)|61|global|Maíz|Permite la descarga del reporte de facturas en la pantalla de consultas facturas de Maíz.
arroz_exportar_productores_xlsx|Exportar productores (xlsx)|62|global|Arroz|Permite la descarga del reporte de productores en la pantalla de consultas productor de Arroz.
arroz_exportar_facturas_xlsx|Exportar facturas (xlsx)|63|global|Arroz|Permite la descarga del reporte de facturas en la pantalla de consultas facturas de Arroz.
trigo_exportar_contratos_xlsx|Exportar contratos (xlsx)|64|global|Trigo|Permite la descarga del reporte de contratos en la pantalla de consultas contratos de Trigo.
trigo_exportar_productores_xlsx|Exportar productores (xlsx)|65|global|Trigo|Permite la descarga del reporte de productores en la pantalla de consultas productor de Trigo.
trigo_exportar_facturas_xlsx|Exportar facturas (xlsx)|66|global|Trigo|Permite la descarga del reporte de facturas en la pantalla de consultas facturas de Trigo.
maiz_exportar_productores_xlsx_planeacion|Exportar productores (xlsx - observador)|67|global|Maíz|Permite la descarga del reporte de predios (Observador) en la pantalla de consultas productor de Maíz.
arroz_exportar_productores_xlsx_planeacion|Exportar productores (xlsx - observador)|68|global|Arroz|Permite la descarga del reporte de predios (Observador) en la pantalla de consultas productor de Arroz.
trigo_exportar_productores_xlsx_planeacion|Exportar productores (xlsx - observador)|69|global|Trigo|Permite la descarga del reporte de predios (Observador) en la pantalla de consultas productor de Trigo.
maiz_exportar_facturas_xlsx_planeacion|Exportar facturas (xlsx - observador)|70|global|Maíz|Permite la descarga del reporte de Ciclo (Observador) en la pantalla de consultas facturas de Maíz.
arroz_exportar_facturas_xlsx_planeacion|Exportar facturas (xlsx - observador)|71|global|Arroz|Permite la descarga del reporte de Ciclo (Observador) en la pantalla de consultas facturas de Arroz.
trigo_exportar_facturas_xlsx_planeacion|Exportar facturas (xlsx - observador)|72|global|Trigo|Permite la descarga del reporte de Ciclo (Observador) en la pantalla de consultas facturas de Trigo.
administrar_productor|Administración de productores|73|global|Cultivos|Permite el acceso a la pantalla de Administración de productores.
arroz_exportar_pre_registros_xlsx|Exportar pre registros (xlsx)|74|global|Arroz|Permite la descarga del reporte de pre-registros de Arroz en la pantalla de consulta Pre-registro.
maiz_exportar_pre_registros_xlsx|Exportar pre registros (xlsx)|75|global|Maíz|Permite la descarga del reporte de pre-registros de Maíz en la pantalla de consulta Pre-registro.
administrar_parametro|Administración de parametros|76|global|Cultivos|Permite ingresar a la pantalla de administración de parámetros.
administrar_estimulo|Administración de estímulos|77|global|Cultivos|Permite ingresar a la pantalla de administración de estímulos.
administrar_uso_catalogo|Administración de usos catalogo|78|global|Cultivos|Permite ingresar a la pantalla de administración de usos catalogo
administrar_requerimiento_pago|Administrar requerimiento de pago|79|global|Cultivos|Permite ingresar a la pantalla de Administración de pago y cambiar los estatus.
reasignar_inscripcion|Reasignar registros|80|global|Cultivos|Permite ingresar a la pantalla de Reasignación, y cambiar el usuario validador de múltiples registros.
trigo_solicitar_complemento|Solicitar complemento|81|global|Trigo|Permite ingresar a la pantalla de complementos.
# clave|nombre|orden|global/local|sistema|Descripción
trigo_consultar_pre_registro|Consultar pre registro|82|global|Trigo|Permite ingresar a la pantalla consulta de pre registro de productor en Trigo y consultar y/o exportar los pre registros.
trigo_exportar_pre_registros_xlsx|Exportar pre registros (xlsx)|83|global|Trigo|Permite la descarga del reporte de pre-registros de Trigo en la pantalla de consulta Pre-registro.
trigo_editar_pre_registro|Editar Pre Registro|84|global|Trigo|Permite la edición de un registro de Trigo en la pantalla de capturas.
administrar_informacion_alerta|Administrar información alerta|85|global|Cultivos|Permite ingresar a la pantalla de Administrar información alerta y agregar, modificar y eliminar registros.