AF|AFG|Afganistán|Afgana
AL|ALB|Albania|Albanesa
DE|DEU|Alemania|Alemana
AD|AND|Andorra|Andorrana
AO|AGO|Angola|Angoleña
AI|AIA|Anguila|Británica
AG|ATG|Antigua y Barbuda|De Antigua y Barbuda
AN|ANT|Antillas Holandesas|Neerlandesa
XX|XXA|Apátrida|Apátrida
SA|SAU|Arabia Saudita|Árabe Saudita
DZ|DZA|Argelia|Argelina
AR|ARG|Argentina|Argentina
AM|ARM|Armenia|Armenia
AW|ABN|Aruba|Neerlandesa
AU|AUS|Australia|Australiana
AT|AUT|Austria|Austriaca
AZ|AZE|Azerbaiyán|Azerbaiyana
BS|BHS|Bahamas|Bahamesa
BH|BHR|Bahrein|De Bahrein
BD|BGD|Bangladesh|De Bangladesh
BB|BRB|Barbados|Barbadense
BY|BLR|Belarús|Belarusa
BZ|BLZ|Belice|Beliceña
BJ|BEN|Benin|Beninesa
BT|BTN|Bhután|Bhutanesa
BO|BOL|Bolivia|Boliviana
BA|BIH|Bosnia y Herzegovina|De Bosnia Herzegovina
BW|BWA|Botswana|Botswanesa
BR|BRA|Brasil|Brasileña
BN|BRN|Brunei Darussalam|De Brunei Darussalam
BG|BGR|Bulgaria|Bulgara
BF|BFA|Burkina Faso|De Burkina Faso
BI|BDI|Burundi|Burundiana
BE|BEL|Bélgica|Belga
CV|CPV|Cabo Verde|Caboverdiana
KH|KHM|Camboya|Camboyana
CM|CMR|Camerún|Camerunesa
CA|CAN|Canadá|Canadiense
TD|TCD|Chad|Chadiana
CL|CHL|Chile|Chilena
CN|CHN|China, República Popular|China
CY|CYP|Chipre|Chipriota
CO|COL|Colombia|Colombiana
KM|COM|Comoras|Comorana
CG|COG|Congo|Congoleña
KP|PRK|Corea del Norte|De La República Democrática de Corea
KR|KOR|Corea del Sur|De La República de Corea
CR|CRI|Costa Rica|Costarricense
CI|CIV|Costa de Marfil (Côte D' Ivoire)|De Côte D'Ivoire
HR|HRV|Croacia|Croata
CU|CUB|Cuba|Cubana
DK|DNK|Dinamarca|Danesa
DJ|DJI|Djibouti|De Djibouti
DM|DMA|Dominica|De Dominica
EC|ECU|Ecuador|Ecuatoriana
EG|EGY|Egipto|Egipcia
SV|SLV|El Salvador|Salvadoreña
AE|ARE|Emiratos Árabes Unidos|De los Emiratos Árabes Unidos
ER|ERI|Eritrea|Eritrea
SK|SVK|Eslovaquia|Eslovaca
SI|SVN|Eslovenia|Eslovena
ES|ESP|España|Española
US|USA|Estados Unidos de América|Estadounidense
EE|EST|Estonia|Estonia
ET|ETH|Etiopia|Etiope
MK|MKD|Ex República Yugoslava De Macedonia|De La Ex República Yugoslava De Macedonia
RU|RUS|Federación De Rusia|Rusa
FJ|FJI|Fiji|De Fiji
PH|PHL|Filipinas|Filipina
FI|FIN|Finlandia|Finlandesa
FR|FRA|Francia|Francesa
GA|GAB|Gabón|Gabonesa
GM|GMB|Gambia|Gambiana
GE|GEO|Georgia|Georgiana
GH|GHA|Ghana|Ghanesa
GI|GIB|Gibraltar|Británica
GD|GRD|Granada|Granadina
GR|GRC|Grecia|Griega
GL|GRL|Groenlandia|Danesa
GP|GLP|Guadalupe|Francesa
GU|GUM|Guam|Estadounidense
GT|GTM|Guatemala|Guatemalteca
GF|GUF|Guayana Francesa|Francesa
GG|GGY|Guernsey|Británica
GN|GIN|Guinea|De Guinea
GW|GNB|Guinea Bissau|De Guinea Bissau
GQ|GNQ|Guinea Ecuatorial|Guineana
GY|GUY|Guyana|Guyanesa
HT|HTI|Haití|Haitiana
HN|HND|Honduras|Hondureña
HK|HKG|Hong Kong (Región Administrativa Especial)|China
HU|HUN|Hungría|Hungara
IN|IND|India|India
ID|IDN|Indonesia|Indonesia
IQ|IRQ|Iraq|Iraquí
IE|IRL|Irlanda|Irlandesa
IR|IRN|Irán (República Islámica del)|Irani
MF|MAF|San Martin|Francesa
IM|IMN|Isla del Hombre|Británica
IS|ISL|Islandia|Islandesa
AX|ALA|Islas Aland|Finlandesa
P2|PT2|Islas Azores|De las Islas Azores
BM|BMU|Bermuda|Británica
KY|CYM|Islas Caimán|Británica
CC|CCK|Islas Cocos|Australiana
CK|COK|Islas Cook|Neozelandesa
FO|FRO|Islas Faroe|Danesa
GS|SGS|Islas Georgia del Sur y Sandwich del Sur|Británica
FK|FLK|Islas Malvinas|Británica
MP|MNP|Islas Marianas|Estadounidense
MH|MHL|Islas Marshall|De Islas Marshall
CX|CXR|Islas Navidad|Australiana
NF|NFK|Islas Norfolk|Australiana
PN|PCN|Islas Pitcairn|Británica
RE|REU|Islas Reunion|Francesa
SB|SLB|Islas Salomon|De Las Islas Salomon
TC|TCA|Islas Turcas y Caicos|Británica
VG|VGB|Islas Vírgenes Británicas|Británica
VI|VIR|Islas Vírgenes de Estados Unidos|Estadounidense
WF|WLF|Islas Wallis y Futuna|Francesa
IL|ISR|Israel|Israelí
IT|ITA|Italia|Italiana
JM|JAM|Jamaica|Jamaiquina
JP|JPN|Japón|Japonesa
JO|JOR|Jordania|Jordana
KZ|KAZ|Kazajstan|Kazaka
KE|KEN|Kenia|Keniana
KG|KGZ|Kirguistán|Kirguis
KI|KIR|Kiribati|Kiribatiana
KW|KWT|Kuwait|Kuwaiti
LA|LAO|Lao|De Lao
LS|LSO|Lesotho|De Lesotho
LV|LVA|Letonia|Letona
LR|LBR|Liberia|Liberiana
LY|LBY|Libia|Libia
LI|LIE|Liechtenstein|De Liechtenstein
LT|LTU|Lituania|Lituana
LU|LUX|Luxemburgo|Luxemburguesa
LB|LBN|Líbano|Libanesa
MO|MAC|Macao (Región Administrativa Especial)|China
MG|MDG|Madagascar|Malgache
MY|MYS|Malasia|Malasia
MW|MWI|Malawi|Malawiana
MV|MDV|Maldivas|Maldiva
ML|MLI|Mali|Maliense
MT|MLT|Malta|Maltesa
MA|MAR|Marruecos|Marroqui
MQ|MTQ|Martinica|Francesa
MU|MUS|Mauricio|Mauriciana
MR|MRT|Mauritania|Mauritana
YT|MYT|Mayotte|Francesa
FM|FSM|Micronesia|Micronesia
MD|MDA|Moldova|Moldova
MN|MNG|Mongolia|Mongola
ME|MNE|Montenegro|Montenegrina
MS|MSR|Montserrat|Británica
MZ|MOZ|Mozambique|Mozambiqueña
MX|MEX|México|Mexicana
MC|MCO|Mónaco|Monegasca
NA|NAM|Namibia|Namibiana
NR|NRU|Nauru|Nauruana
NP|NPL|Nepal|Nepalesa
NI|NIC|Nicaragua|Nicaraguense
NE|NER|Niger|Nigerina
NG|NGA|Nigeria|Nigeriana
NU|NIU|Niue|Neozelandesa
NO|NOR|Noruega|Noruega
NC|NCL|Nueva Caledonia|Francesa
NZ|NZL|Nueva Zelandia|Neozelandesa
OM|OMN|Oman|Omaní
PK|PAK|Pakistán|Pakistani
PW|PLW|Palau|De Palau
PS|PSE|Palestina|Palestina
PA|PAN|Panamá|Panameña
PG|PNG|Papua Nueva Guinea|De Papua Nueva Guinea
PY|PRY|Paraguay|Paraguaya
NL|NLD|Países Bajos (Holanda)|Neerlandesa
PE|PER|Perú|Peruana
PF|PYF|Polinesia Francesa|Francesa
PL|POL|Polonia|Polaca
PT|PRT|Portugal|Portuguesa
PR|PRI|Puerto Rico|Estadounidense
QA|QAT|Qatar|De Qatar
GB|GBR|Reino Unido|Británica
CF|CAF|República Centroafricana|Centroafricana
CZ|CZE|República Checa|Checa
CD|COD|República Democrática del Congo|De República Democrática del Congo
DO|DOM|República Dominicana|Dominicana
EH|ESH|República Árabe Saharaui Democrática|De Saharaui
RO|ROU|Rumania|Rumana
RW|RWA|Rwanda|Rwandesa
KN|KNA|Saint Kitts y Nevis|De Saint Kitts y Nevis
AS|ASM|Samoa Americana|Samoana Estadounidense
WS|WSM|Samoa Occidental|Samoana
BL|BLM|San Bartolomé|Francesa
SM|SMR|San Marino|Sanmarinense
PM|SPM|San Pedro y Miguelón|Francesa
VC|VCT|San Vicente y Las Granadinas|De San Vicente y Las Granadinas
SH|SHN|Santa Helena|Británica
LC|LCA|Santa Lucía|Santalucense
VA|VAT|Santa Sede|De la Santa Sede
ST|STP|Santo Tomé y Príncipe|De Santo Tomé y Principe
SN|SEN|Senegal|Senegalesa
RS|SRB|Serbia|Serbia
CS|SCG|Serbia y Montenegro|De Serbia y Montenegro
SC|SYC|Seychelles|De Seychelles
SL|SLE|Sierra Leona|Sierraleonesa
SG|SGP|Singapur|Singapurense
SY|SYR|Siria|Siria
SO|SOM|Somalia|Somalí
LK|LKA|Sri Lanka|De Sri Lanka
ZA|ZAF|Sudáfrica|Sudafricana
SD|SDN|Sudán|Sudanesa
SE|SWE|Suecia|Sueca
CH|CHE|Suiza|Suiza
SR|SUR|Surinam|Surinamesa
SJ|SJM|Svalbard y Jan Mayen|Noruega
SZ|SWZ|Swazilandia|Swazi
TH|THA|Tailandia|Tailandesa
TW|TWN|Taiwán|Taiwanés
TZ|TLA|Tanzania|Tanzaniana
TJ|TJK|Tayikistán|Tayika
IO|IOT|Territorio Británico del Océano Índico|Británica
TL|TLS|Timor-Leste|Timorense
TG|TGO|Togo|Togolesa
TK|TKL|Tokelau|Neozelandesa
TO|TON|Tonga|Tongana
TT|TTO|Trinidad y Tobago|De Trinidad y Tobago
TM|TKM|Turkmenistan|Turcomana
TR|TUR|Turquía|Turca
TV|TUV|Tuvalu|De Tuvalu
TN|TUN|Túnez|Tunecina
UA|UKR|Ucrania|Ucraniana
UG|UGA|Uganda|Ugandesa
MM|MMR|Myanmar|De Myanmar
UY|URY|Uruguay|Uruguaya
UZ|UZB|Uzbekistán|Uzbeka
VU|VUT|Vanuatu|De Vanuatu
VE|VEN|Venezuela|Venezolana
VN|VNM|Vietnam|Vietnamita
YE|YEM|Yemen|Yemenita
YU|YUG|Yugoslavia|Yugoslava
ZM|ZMB|Zambia|Zambiana
ZW|ZWE|Zimbabwe|Zimbabwense
--|---|Desconocido|Desconocida
