040020001|24000|San Francisco de Campeche Centro|04|002|0001
040020009|24010|Guadalupe|04|002|0009
040020010|24010|Pablo Garcia|04|002|0010
040020011|24010|San Francisco|04|002|0011
040020013|24010|Villa del Río|04|002|0013
040020532|24010|Guadalupe|04|002|0532
040020533|24014|Ah-kim-pech|04|002|0533
040020004|24020|Residencial del Bosque|04|002|0004
040020016|24020|Bellavista|04|002|0016
040020017|24020|Ampliación Bellavista|04|002|0017
040020018|24020|Emiliano Zapata|04|002|0018
040020019|24020|La Ermita|04|002|0019
040020020|24020|San Joaquín|04|002|0020
040020021|24020|Santa Lucia|04|002|0021
040020534|24020|Camino Real|04|002|0534
040020535|24020|Benito Juárez|04|002|0535
040020536|24020|Buenos Aires|04|002|0536
040020537|24020|San Caralampio|04|002|0537
040020538|24020|Dzarbay|04|002|0538
040021066|24020|Sotavento|04|002|1066
040021170|24020|Villamar|04|002|1170
040020035|24022|Montecarlo|04|002|0035
040020102|24022|Carzabela|04|002|0102
040020023|24023|Fidel Velázquez|04|002|0023
040020030|24023|Las Murallas|04|002|0030
040020054|24023|Residencial Algarrobo|04|002|0054
040020539|24023|Ernesto Zedillo|04|002|0539
040021021|24023|Residencial Campestre|04|002|1021
040021059|24023|Nachi Cocom|04|002|1059
040021159|24023|Quinta Hermosa|04|002|1159
040021160|24023|Hacienda Real el Fenix|04|002|1160
040020024|24024|Mártires de Río Blanco|04|002|0024
040020026|24025|Solidaridad Nacional|04|002|0026
040020028|24026|Granjas|04|002|0028
040020029|24026|Morelos|04|002|0029
040020032|24026|San José el Alto|04|002|0032
040020100|24026|Divino Niño|04|002|0100
040020541|24026|Minas|04|002|0541
040020542|24026|Cumbres|04|002|0542
040020543|24026|Valle Dorado|04|002|0543
040020544|24026|Ampliación Josefa Ortiz de Domínguez|04|002|0544
040020545|24026|Mirador|04|002|0545
040021013|24026|Elvia María Pérez de González|04|002|1013
040021051|24026|Viveros|04|002|1051
040021063|24026|Diana Laura|04|002|1063
040021064|24026|Luis Donaldo Colosio|04|002|1064
040021272|24026|Palma Real|04|002|1272
040020033|24027|Palmas|04|002|0033
040020715|24027|San Miguel|04|002|0715
040020716|24027|Villa Mercedes|04|002|0716
040020036|24028|Villas de Ah-kim-Pech|04|002|0036
040021067|24028|Cocotero de las Palmas|04|002|1067
040020037|24029|Centro SCT Campeche|04|002|0037
040020038|24030|Bosques de Campeche|04|002|0038
040020040|24030|Héroes de Chapultepec (FOVI)|04|002|0040
040020116|24030|Resurgimiento|04|002|0116
040020118|24030|CEDAR Campeche|04|002|0118
040020547|24030|Miramar|04|002|0547
040020548|24030|Lomas del Castillo|04|002|0548
040021006|24030|Villas Universidad|04|002|1006
040020027|24035|Lomas del Rey|04|002|0027
040020109|24035|Villas de Allende|04|002|0109
040020549|24035|San Cayetano|04|002|0549
040020550|24035|San Arturo|04|002|0550
040020551|24035|Burócratas Pensiones|04|002|0551
040020552|24035|Cerro de La Eminencia|04|002|0552
040020553|24035|Vicente Guerrero|04|002|0553
040020554|24035|Prado|04|002|0554
040021054|24035|Lomas del Pedregal|04|002|1054
040021069|24035|Residencial Pedregal|04|002|1069
040021077|24035|Invasión San Arturo|04|002|1077
040020042|24036|Adolfo López Mateos (SUTERM)|04|002|0042
040020110|24036|El Pedregal|04|002|0110
040020111|24036|Electricistas|04|002|0111
040020043|24037|Ciudad Militar|04|002|0043
040020044|24038|Kanisté|04|002|0044
040020555|24038|Kaniste|04|002|0555
040020556|24038|Rinconada del Valle|04|002|0556
040021296|24038|Monte Verde|04|002|1296
040020045|24039|Buenavista|04|002|0045
040020046|24040|San José|04|002|0046
040020047|24040|San Román|04|002|0047
040021031|24040|Privada Narciso Mendoza|04|002|1031
040020557|24044|Montecristo|04|002|0557
040020558|24044|Lazareto|04|002|0558
040021078|24044|Residencial Resurgimiento|04|002|1078
040020049|24049|Bicentenario I y II|04|002|0049
040020050|24050|FOVISSSTE Belén|04|002|0050
040020052|24050|Santa Ana|04|002|0052
040020112|24050|Villa Tulipanes|04|002|0112
040020114|24050|San Juan|04|002|0114
040020559|24050|La Paz|04|002|0559
040020560|24050|La Huerta|04|002|0560
040020561|24050|Parque Residencial La Noria|04|002|0561
040020562|24050|Privada Guadalupana|04|002|0562
040020563|24050|Hollywood|04|002|0563
040021048|24050|Campeche 1|04|002|1048
040021061|24050|Santa Ana|04|002|1061
040020053|24058|Caribe|04|002|0053
040020025|24060|Valle del Águila|04|002|0025
040020055|24060|El Polvorín|04|002|0055
040020056|24060|Ampliación Polvorín|04|002|0056
040020057|24060|Jardines|04|002|0057
040020060|24060|Tomas Aznar|04|002|0060
040020101|24060|Sector Las Flores|04|002|0101
040020565|24060|Residencial Bugambilias|04|002|0565
040020566|24060|Tabachines|04|002|0566
040020567|24060|Lomas del Polvorín|04|002|0567
040020568|24060|Leovigildo Gómez|04|002|0568
040020569|24060|Unidad y Esperanza|04|002|0569
040020570|24060|Solidaridad Urbana|04|002|0570
040020571|24060|Lomas de las Flores|04|002|0571
040020572|24060|Montebello|04|002|0572
040020573|24060|Naval Campeche III|04|002|0573
040021009|24060|Residencial Delicias|04|002|1009
040021010|24060|Lomas Delicias|04|002|1010
040021011|24060|Lomas|04|002|1011
040021044|24060|Las Quintas|04|002|1044
040021045|24060|Colinas del Sur|04|002|1045
040021047|24060|Casa Blanca|04|002|1047
040021065|24060|Altavista|04|002|1065
040021079|24060|Lomas de las Flores II|04|002|1079
040021211|24060|Villas de Monte Real|04|002|1211
040021274|24060|Tacubaya|04|002|1274
040021275|24060|Villareal|04|002|1275
040020063|24069|Flor de Limón|04|002|0063
040020064|24070|Aviación|04|002|0064
040020065|24070|Cuatro Caminos|04|002|0065
040020066|24070|Ampliación Cuatro Caminos|04|002|0066
040020067|24070|Huanal|04|002|0067
040020068|24070|Justo Sierra Méndez|04|002|0068
040020069|24070|Santa Bárbara|04|002|0069
040020103|24070|Cuatro Caminos|04|002|0103
040020574|24070|Bello Horizonte|04|002|0574
040020575|24070|Héroe de Nacozari|04|002|0575
040020576|24070|Hacienda Santa María|04|002|0576
040020578|24070|Colonia México|04|002|0578
040020717|24070|Justicia Social|04|002|0717
040021171|24070|Quinta de Los Españoles|04|002|1171
040021018|24073|Siglo XXI|04|002|1018
040020070|24075|El Carmelo|04|002|0070
040020071|24079|Campeche (Ing. Alberto Acuña Ongay)|04|002|0071
040020072|24080|Esperanza|04|002|0072
040020073|24080|Ampliación Esperanza|04|002|0073
040020074|24080|Pablo Garcia|04|002|0074
040020075|24080|Revolución|04|002|0075
040020076|24080|Ampliación Revolución|04|002|0076
040020579|24080|Josefa Ortiz de Domínguez|04|002|0579
040021007|24080|Ampliación Invasión Esperanza|04|002|1007
040021169|24080|Emiliano Zapata|04|002|1169
040020077|24083|Fátima|04|002|0077
040020031|24084|Siglo XXIII|04|002|0031
040020059|24084|Nuevo San Antonio Ebulá|04|002|0059
040020005|24085|Villas de Kala|04|002|0005
040020022|24085|Altamira|04|002|0022
040020079|24085|Ciudad Concordia|04|002|0079
040020113|24085|Bosque Real|04|002|0113
040020580|24085|Kala|04|002|0580
040020947|24085|Ramón Espíndola Blanco|04|002|0947
040021008|24085|Murallas FSTSE|04|002|1008
040021049|24085|Residencial La Hacienda|04|002|1049
040021050|24085|Ampliación Ciudad Concordia|04|002|1050
040021060|24085|Invasión Esperanza|04|002|1060
040021062|24085|20 de Noviembre|04|002|1062
040020106|24086|Villa Flora|04|002|0106
040020117|24086|Santa Lucía|04|002|0117
040021052|24086|Villa Turquesa|04|002|1052
040020003|24087|Los Reyes|04|002|0003
040020081|24087|Eduardo J. Lavalle Urbina|04|002|0081
040020583|24087|Privada Exhacienda Kala|04|002|0583
040020584|24087|Colonial Campeche|04|002|0584
040020586|24087|Caminero|04|002|0586
040020587|24087|Ampliación Kala|04|002|0587
040021012|24087|Hacienda San Antonio|04|002|1012
040021022|24087|Tula|04|002|1022
040021025|24087|Vista Hermosa|04|002|1025
040021026|24087|Privada Residencial Colonial|04|002|1026
040021267|24087|Terranova|04|002|1267
040020012|24088|Alameda|04|002|0012
040020014|24088|Las Arboledas|04|002|0014
040020078|24088|Héroes de la Revolución|04|002|0078
040020082|24088|Unidad y Trabajo Plan-chac|04|002|0082
040020104|24088|Villa Naranjos|04|002|0104
040020589|24088|Fénix|04|002|0589
040020590|24088|Presidentes de México|04|002|0590
040020591|24088|Paseo de Campeche|04|002|0591
040021014|24088|Los Cedros|04|002|1014
040021019|24088|Guadalupe Victoria|04|002|1019
040021020|24088|VIVAH|04|002|1020
040021162|24088|Villas la Hacienda|04|002|1162
040021261|24088|El Vergel|04|002|1261
040021271|24088|Los Álamos|04|002|1271
040021299|24088|Reforma|04|002|1299
040021300|24088|Colonia|04|002|1300
040021301|24088|Insurgentes|04|002|1301
040021302|24088|Independencia|04|002|1302
040020083|24089|Peña|04|002|0083
040020084|24090|Fracciorama 2000|04|002|0084
040020085|24090|Samulá|04|002|0085
040020086|24090|San Rafael|04|002|0086
040020087|24090|Valle del Sol|04|002|0087
040020108|24090|Residencial Villas Colosio|04|002|0108
040020115|24090|Villas Residencial|04|002|0115
040020592|24090|Nueva Era|04|002|0592
040020593|24090|Los Sauces|04|002|0593
040020720|24090|Villas de Samula|04|002|0720
040020721|24090|La Vista|04|002|0721
040021055|24090|Ampliación San Rafael|04|002|1055
040021072|24090|Rinconada Samula|04|002|1072
040021163|24090|Infonavit Samula|04|002|1163
040021164|24090|Las Campanillas|04|002|1164
040021165|24090|Flor de Liz|04|002|1165
040021166|24090|San Andrés|04|002|1166
040021167|24090|Girasoles|04|002|1167
040021212|24090|Villa Jazmín|04|002|1212
040020088|24093|Villas Residencial (Ix-Lol-Be)|04|002|0088
040021266|24093|Residencial La Arboleda|04|002|1266
040020089|24094|Miguel Hidalgo|04|002|0089
040020090|24094|Ampliación Miguel Hidalgo|04|002|0090
040020105|24094|La Cañada|04|002|0105
040020594|24094|Ampliación Ignacio Zaragoza|04|002|0594
040020595|24094|Ampliación Samulá|04|002|0595
040020596|24094|Miramar|04|002|0596
040021029|24094|Villa Laureles II|04|002|1029
040021297|24094|Esmeralda|04|002|1297
040020002|24095|Residencial los Almendros|04|002|0002
040020091|24095|Sascalum|04|002|0091
040020096|24095|Residencial San Francisco|04|002|0096
040020598|24095|Lázaro Cárdenas|04|002|0598
040020599|24095|Reforma Agraria|04|002|0599
040021015|24095|Villa Laureles|04|002|1015
040021027|24095|Multunchac|04|002|1027
040021030|24095|Villa Dalias|04|002|1030
040021176|24095|18 de Marzo|04|002|1176
040021289|24095|El Doral|04|002|1289
040020092|24096|Lindavista C.T.M.|04|002|0092
040020600|24096|Los Laureles|04|002|0600
040020603|24096|Tepeyac|04|002|0603
040021028|24096|Guadalajara|04|002|1028
040020094|24097|Las Flores|04|002|0094
040020601|24097|Las Rosas|04|002|0601
040020718|24097|Bugambilias|04|002|0718
040020719|24097|Santa Cecilia|04|002|0719
040020097|24098|Ignacio Zaragoza|04|002|0097
040020602|24098|Lomas de Zaragoza|04|002|0602
040020098|24099|Lomas de San Rafael|04|002|0098
040020099|24099|San Antonio|04|002|0099
040021016|24099|San Rafael|04|002|1016
040021053|24099|Ampliación San Antonio|04|002|1053
040030100|24100|Ciudad del Carmen Centro|04|003|0100
040030102|24108|CERESO Ciudad del Carmen|04|003|0102
040030104|24110|Caleta|04|003|0104
040030105|24110|Héctor Pérez Martínez|04|003|0105
040030106|24110|Fátima|04|003|0106
040030108|24110|1 de Mayo (Playón)|04|003|0108
040030747|24110|San Agustin del Palmar|04|003|0747
040030109|24114|Justo Sierra|04|003|0109
040030111|24115|Marina del Rey|04|003|0111
040030112|24115|Morelos|04|003|0112
040030740|24115|Miami|04|003|0740
040030741|24115|Monte Bello|04|003|0741
040030743|24115|Playa Norte|04|003|0743
040030113|24116|San Carlos|04|003|0113
040030957|24116|Boquerón del Palmar|04|003|0957
040030115|24117|Obrera|04|003|0115
040030116|24118|San Nicolás|04|003|0116
040030117|24119|Ciudad del Carmen (Ciudad del Carmen)|04|003|0117
040030727|24119|Aeropuerto|04|003|0727
040030118|24120|Electricistas|04|003|0118
040030119|24120|Revolución|04|003|0119
040030120|24120|Santa Margarita|04|003|0120
040030121|24129|Puerto Pesquero|04|003|0121
040030122|24130|Guadalupe|04|003|0122
040030123|24130|San Miguel|04|003|0123
040030124|24130|20 de Noviembre|04|003|0124
040030125|24139|Guanal|04|003|0125
040030126|24139|Puntilla|04|003|0126
040030127|24140|Pallas|04|003|0127
040030128|24150|Belisario Domínguez|04|003|0128
040030737|24150|Luis Donaldo Colosio|04|003|0737
040031038|24150|La Rivera|04|003|1038
040030001|24153|Residencial Las Palmas|04|003|0001
040031157|24153|Mundo Maya|04|003|1157
040030728|24154|Arcila|04|003|0728
040030729|24154|Compositores|04|003|0729
040030734|24154|Isla del Carmen 2000|04|003|0734
040030735|24154|Los Arcos|04|003|0735
040030738|24154|Maderas|04|003|0738
040030742|24154|Perla del Golfo|04|003|0742
040030745|24154|Puente de La Unidad|04|003|0745
040030748|24154|San Francisco|04|003|0748
040030750|24154|San Manuel|04|003|0750
040030960|24154|Rafael del J Lozano Contreras|04|003|0960
040031043|24154|Pueblo Maya|04|003|1043
040031150|24154|Palmira|04|003|1150
040031151|24154|Los Ríos|04|003|1151
040030129|24155|Renovación I|04|003|0129
040030130|24155|Renovación II|04|003|0130
040030726|24155|23 de Julio|04|003|0726
040030744|24155|Plutarco Elías Calles|04|003|0744
040030754|24155|Solidaridad Urbana|04|003|0754
040030757|24155|Volcanes|04|003|0757
040031036|24155|Renovación III|04|003|1036
040031037|24155|Isla de Tris|04|003|1037
040031133|24155|Villa San José|04|003|1133
040031134|24155|Villa Universitaria|04|003|1134
040031135|24155|Villa Conejo|04|003|1135
040031138|24155|Bugambilias|04|003|1138
040031153|24155|San Capistrano|04|003|1153
040031154|24155|Santa Mónica|04|003|1154
040031295|24155|Villas de Santa Ana|04|003|1295
040030024|24156|Residencial El Cielo|04|003|0024
040031139|24156|Puerta de Hierro|04|003|1139
040031141|24156|El Dorado|04|003|1141
040031142|24156|Villa del Mar|04|003|1142
040031143|24156|Villa Florencia|04|003|1143
040031144|24156|Villa de Los Ángeles|04|003|1144
040031145|24156|Villa Encantada|04|003|1145
040031147|24156|Mediterráneo|04|003|1147
040030003|24157|Buenavista|04|003|0003
040030004|24157|Turquesa|04|003|0004
040030006|24157|Rinconada|04|003|0006
040030007|24157|Residencial Vistancias|04|003|0007
040030011|24157|Club Residencial Azul|04|003|0011
040030014|24157|Mar Azul|04|003|0014
040030015|24157|Bicentenario|04|003|0015
040030023|24157|Paseo de los Bosques|04|003|0023
040030025|24157|San Joaquín|04|003|0025
040030131|24157|Puesta del Sol|04|003|0131
040030749|24157|San Joaquín|04|003|0749
040030751|24157|Santa Isabel|04|003|0751
040030959|24157|Residencial San Miguel|04|003|0959
040030969|24157|Privada Santa Ana|04|003|0969
040030970|24157|Privada San Joaquín|04|003|0970
040031042|24157|Playa Palmas|04|003|1042
040031080|24157|Las Esperanzas|04|003|1080
040031081|24157|Real del Carmen|04|003|1081
040031125|24157|Hacienda Dorada|04|003|1125
040031126|24157|Girasoles|04|003|1126
040031127|24157|Raíces|04|003|1127
040031128|24157|Villas del Carmen|04|003|1128
040031129|24157|Villa Magna|04|003|1129
040031130|24157|Villa Marina|04|003|1130
040031131|24157|Misión del Carmen|04|003|1131
040031136|24157|Reforma II Sección|04|003|1136
040031155|24157|La Esperanza|04|003|1155
040031156|24157|Evergreén|04|003|1156
040031172|24157|José Ortiz Ávila|04|003|1172
040031252|24157|Hacienda del Mar|04|003|1252
040031255|24157|San Román|04|003|1255
040031270|24157|Canterías|04|003|1270
040031281|24157|Villa Palmeras|04|003|1281
040031287|24157|18 de Marzo|04|003|1287
040031288|24157|Privanzas|04|003|1288
040030002|24158|Orizaba|04|003|0002
040030022|24158|Constelaciones|04|003|0022
040030132|24158|Bivalbo|04|003|0132
040030731|24158|Héroes de Nacozari|04|003|0731
040030733|24158|Reforma|04|003|0733
040030746|24158|Residencial del Lago|04|003|0746
040030752|24158|Santa Rita|04|003|0752
040031040|24158|Las Huertas|04|003|1040
040031041|24158|Mujeres Carmelitas|04|003|1041
040031269|24158|El Potrero|04|003|1269
040031294|24158|Constelaciones II|04|003|1294
040030133|24160|Burócrata|04|003|0133
040030135|24166|Justo Sierra|04|003|0135
040030136|24167|Lomas de Holche|04|003|0136
040030138|24169|Camaroneros|04|003|0138
040031254|24169|Asa Poniente|04|003|1254
040030139|24170|Aviación|04|003|0139
040030730|24170|Cuauhtémoc|04|003|0730
040030755|24170|Tila|04|003|0755
040030140|24178|Tecolutla|04|003|0140
040030141|24179|Petrolera|04|003|0141
040030142|24180|Benito Juárez|04|003|0142
040030143|24180|Benito Juárez 2|04|003|0143
040030144|24180|Limonar|04|003|0144
040030146|24180|Tacubaya|04|003|0146
040030147|24185|Estrella|04|003|0147
040030148|24186|Miguel de La Madrid|04|003|0148
040030149|24187|Manigua|04|003|0149
040030150|24188|Caracol|04|003|0150
040030151|24189|Salitral|04|003|0151
040030152|24190|Francisco I Madero|04|003|0152
040030153|24195|Pedro Sainz de Baranda|04|003|0153
040031039|24195|Las Pilas|04|003|1039
040030154|24197|Insurgentes|04|003|0154
040030739|24197|Malibrán|04|003|0739
040030753|24197|Santa Rosalía|04|003|0753
040031035|24197|Independencia|04|003|1035
040030155|24198|Emiliano Zapata|04|003|0155
040030156|24199|FOVISSSTE|04|003|0156
040070157|24200|Palizada Centro|04|007|0157
040070723|24200|Aviación|04|007|0723
040070724|24200|Justicia Social|04|007|0724
040070725|24200|La Esperanza|04|007|0725
040071230|24203|El Porvenir|04|007|1230
040071233|24203|Lagón Dulce|04|007|1233
040071282|24203|Puerto Arturo|04|007|1282
040070004|24204|El Mangal|04|007|0004
040070010|24204|Isla de San Isidro|04|007|0010
040070021|24204|Rivera de la Viuda|04|007|0021
040070165|24204|Ribera de la Corriente|04|007|0165
040070168|24204|Tila|04|007|0168
040070170|24204|Ribera San Eduardo|04|007|0170
040071263|24204|Ribera Gómez|04|007|1263
040071283|24204|Las Bodegas|04|007|1283
040070017|24205|Plan del Carmen|04|007|0017
040070019|24205|Ribera del Playón|04|007|0019
040070022|24205|San Agustín|04|007|0022
040070159|24205|Alamilla|04|007|0159
040070161|24205|San Juan|04|007|0161
040070162|24205|Santa Isabel|04|007|0162
040070163|24205|Santa Cruz|04|007|0163
040070166|24205|El Borbotón|04|007|0166
040070167|24205|San Joaquín|04|007|0167
040071234|24205|El Paraíso|04|007|1234
040071235|24205|El Cuyo|04|007|1235
040071237|24205|La Toza|04|007|1237
040070003|24206|El Cuerno|04|007|0003
040070008|24206|El Vergel|04|007|0008
040070012|24206|La Envidia|04|007|0012
040070014|24206|La Victoria|04|007|0014
040070160|24206|San José|04|007|0160
040071231|24206|Los Laureles|04|007|1231
040071236|24206|Santa Mónica (Santa Rita)|04|007|1236
040071238|24206|San Francisco|04|007|1238
040071239|24206|Santa Elena|04|007|1239
040071241|24206|Monterrey|04|007|1241
040071242|24206|Paso de los Caballos|04|007|1242
040070001|24207|Cronos|04|007|0001
040070002|24207|El Carmen (San Marcos)|04|007|0002
040070007|24207|El Retiro|04|007|0007
040070009|24207|Gardenias|04|007|0009
040070011|24207|La Concepción|04|007|0011
040070013|24207|La Guadalupe|04|007|0013
040070015|24207|Mata del Chato|04|007|0015
040070016|24207|Mata Larga|04|007|0016
040070020|24207|Río Blanco|04|007|0020
040070023|24207|San Carlos|04|007|0023
040070024|24207|San Hilario|04|007|0024
040070027|24207|Santa Rosa|04|007|0027
040070028|24207|El Popistal|04|007|0028
040070224|24207|Tumbo de la Montaña|04|007|0224
040070227|24207|Santa Adelaida|04|007|0227
040071196|24207|El Juncal|04|007|1196
040071197|24207|Las Flores|04|007|1197
040071232|24207|San Antonio|04|007|1232
040071243|24207|San Ángel|04|007|1243
040071244|24207|San Jorge|04|007|1244
040071245|24207|La Nueva Esperanza|04|007|1245
040071246|24207|La Candelaria|04|007|1246
040071247|24207|Villa Rosa|04|007|1247
040070018|24208|Ribera Boca Chica|04|007|0018
040030017|24300|Emiliano Zapata|04|003|0017
040030018|24300|Nueva Emiliano Zapata|04|003|0018
040030019|24300|El Paraíso|04|003|0019
040030020|24300|Nueva|04|003|0020
040030021|24300|Juan Pablo Cetina|04|003|0021
040030283|24300|Sabancuy Centro|04|003|0283
040030697|24300|Benito Juárez|04|003|0697
040030698|24300|Guadalupe|04|003|0698
040030699|24300|Banco de Piedra|04|003|0699
040030700|24300|Pénjamo|04|003|0700
040030701|24300|Jabal|04|003|0701
040030012|24310|Oxcabal|04|003|0012
040030270|24310|Ignacio Gutiérrez|04|003|0270
040030274|24310|Oxcabal|04|003|0274
040030891|24310|San Antonio (Punta de Piedra)|04|003|0891
040030941|24310|La Pita|04|003|0941
040030943|24310|Anonal|04|003|0943
040030945|24310|Calax|04|003|0945
040030271|24313|General Abelardo L Rodriguez (el Jobal)|04|003|0271
040030285|24313|Plan de Ayala|04|003|0285
040030286|24313|Chic-bul|04|003|0286
040030287|24313|Chekubul|04|003|0287
040030289|24313|José María Pino Suárez|04|003|0289
040030291|24313|Nicolás Bravo|04|003|0291
040030295|24313|La Cristalina|04|003|0295
040030296|24313|Independencia|04|003|0296
040030921|24313|La Esperanza|04|003|0921
040030922|24313|Colonia A López Mateos|04|003|0922
040030937|24313|Santa Rosalía|04|003|0937
040030942|24313|Los Manantiales|04|003|0942
040030944|24313|Chivoja|04|003|0944
040031082|24313|La Lupita|04|003|1082
040030255|24314|Las Delicias|04|003|0255
040030279|24314|Enrique Rodriguez Cano|04|003|0279
040030758|24314|18 de Marzo|04|003|0758
040030225|24315|San Isidro|04|003|0225
040030256|24315|Francisco Villa (mamantel)|04|003|0256
040030261|24315|Pital Nuevo|04|003|0261
040030262|24315|Pital Viejo|04|003|0262
040030293|24315|La Providencia|04|003|0293
040030924|24315|Mamantel Viejo|04|003|0924
040030925|24315|La Concepción|04|003|0925
040030008|24316|Carlos Quinto|04|003|0008
040030187|24316|Nueva Chontalpa|04|003|0187
040030189|24316|Felipe Ángeles|04|003|0189
040030192|24316|Ojo de Agua|04|003|0192
040030199|24316|El Encanto|04|003|0199
040030201|24316|Quebranche|04|003|0201
040030263|24316|Ignacio Zaragoza|04|003|0263
040030927|24316|2 de Marzo|04|003|0927
040030928|24316|San Jorge de Coyoc|04|003|0928
040030929|24316|San Pablito Km. 59|04|003|0929
040030930|24316|Las Cruces|04|003|0930
040030016|24317|El Carmen|04|003|0016
040030172|24317|La Estrella|04|003|0172
040030173|24317|Sacrificio|04|003|0173
040030185|24317|Conquista Campesina|04|003|0185
040030229|24317|El Aguacatal|04|003|0229
040030232|24317|Venustiano Carranza|04|003|0232
040030906|24317|Cinco de Mayo|04|003|0906
040030931|24317|El Triunfo|04|003|0931
040030932|24317|Belisario Domínguez|04|003|0932
040030933|24317|Allende Pejelagarto|04|003|0933
040030934|24317|Centauro del Norte|04|003|0934
040030935|24317|La Florida|04|003|0935
040031210|24317|El Chinal|04|003|1210
040030894|24320|Bella Palizada|04|003|0894
040030896|24320|Polvoxal|04|003|0896
040030897|24320|María de La Luz|04|003|0897
040030895|24322|Arrozal|04|003|0895
040030904|24322|San José (El Deshecho)|04|003|0904
040030899|24323|Fernando Foglio Miramontes|04|003|0899
040030900|24323|Murallas de Campeche|04|003|0900
040030901|24323|Valle de Solidaridad|04|003|0901
040030902|24323|Generalísimo Morelos|04|003|0902
040030903|24323|Santa Rita|04|003|0903
040030912|24323|El Mameyal|04|003|0912
040030914|24323|El Refugio|04|003|0914
040031214|24323|San José Marentes|04|003|1214
040030009|24324|El Popistal|04|003|0009
040030223|24324|El Zapote|04|003|0223
040030905|24324|Paso San Juan|04|003|0905
040030915|24324|Vista Alegre|04|003|0915
040030916|24324|La Pimienta|04|003|0916
040030917|24324|San Elpidio|04|003|0917
040030919|24324|Tres Valles|04|003|0919
040030005|24325|Cantarell [Planta de Nitrógeno]|04|003|0005
040030013|24325|Ribera de San Francisco|04|003|0013
040030299|24325|San Antonio Cárdenas|04|003|0299
040030302|24325|Emiliano Zapata|04|003|0302
040030303|24325|Nuevo Campechito|04|003|0303
040030304|24325|Nuevo Progreso|04|003|0304
040030876|24325|Ribera Media|04|003|0876
040030878|24325|Ribera Alta|04|003|0878
040030881|24325|El Pom|04|003|0881
040030883|24325|La Esperanza|04|003|0883
040030297|24326|Atasta|04|003|0297
040030298|24326|San Salvador de los Cerrillos|04|003|0298
040030301|24326|Puerto Rico|04|003|0301
040030882|24326|Punta Zacatal|04|003|0882
040030010|24327|Reubicación|04|003|0010
040030288|24327|Isla Aguada Centro|04|003|0288
040030292|24327|Puerto Real|04|003|0292
040030885|24327|Boca Nueva|04|003|0885
040030886|24327|La Lagartera|04|003|0886
040110016|24330|Coahuilita|04|011|0016
040110085|24330|San Pablo|04|011|0085
040110171|24330|Candelaria Centro|04|011|0171
040110648|24330|Acalan|04|011|0648
040110649|24330|San Martín|04|011|0649
040110650|24330|Guanajuato|04|011|0650
040110651|24330|Independencia|04|011|0651
040110652|24330|Alejandría|04|011|0652
040110654|24330|Cuauhtémoc|04|011|0654
040110655|24330|San Isidro|04|011|0655
040110020|24333|El Capulín|04|011|0020
040110036|24333|El Sacrificio II|04|011|0036
040110060|24333|Las Maravillas (Campo Menonita)|04|011|0060
040110074|24333|Pejelagarto II|04|011|0074
040110075|24333|R-2007|04|011|0075
040110081|24333|San Antonio|04|011|0081
040110088|24333|Santo Domingo|04|011|0088
040110098|24333|Las Américas|04|011|0098
040110190|24333|Vicente Lombardo Toledano|04|011|0190
040110198|24333|La Nueva Lucha|04|011|0198
040110203|24333|Nueva Rosita|04|011|0203
040110204|24333|Pejelagarto|04|011|0204
040110210|24333|Nueva Esperanza|04|011|0210
040110211|24333|Miguel Alemán|04|011|0211
040110769|24333|El Chilar|04|011|0769
040110788|24333|La Fortuna|04|011|0788
040110791|24333|La Unión|04|011|0791
040111194|24333|El Pocito|04|011|1194
040110045|24334|Hermanos Cruz|04|011|0045
040110047|24334|La Calzada|04|011|0047
040110069|24334|Nueva Esperanza|04|011|0069
040110089|24334|Santo Domingo (El Cuyo)|04|011|0089
040110213|24334|Justo Sierra Méndez|04|011|0213
040110215|24334|Lázaro Cárdenas|04|011|0215
040110216|24334|El Ramonal|04|011|0216
040110217|24334|Estrella del Sur|04|011|0217
040110218|24334|Las Golondrinas|04|011|0218
040110220|24334|El Tigre|04|011|0220
040110242|24334|Pedro Baranda|04|011|0242
040110246|24334|Nuevo Coahuila|04|011|0246
040110249|24334|Monclova|04|011|0249
040110250|24334|Miguel Hidalgo y Costilla|04|011|0250
040110251|24334|Estado de México|04|011|0251
040110779|24334|Esperanza|04|011|0779
040110781|24334|Francisco I. Madero|04|011|0781
040110792|24334|La Zanja (La Palma)|04|011|0792
040110797|24334|Luinal|04|011|0797
040110040|24335|El Treinta (Las Águilas)|04|011|0040
040110084|24335|San Miguel|04|011|0084
040110178|24335|La Pelusa|04|011|0178
040110226|24335|El Porvenir|04|011|0226
040110236|24335|El Tintal|04|011|0236
040110240|24335|El Mamey|04|011|0240
040110025|24336|El Escondido|04|011|0025
040110026|24336|El Esfuerzo|04|011|0026
040110031|24336|El Paso del Cuervo (El Cuervo)|04|011|0031
040110034|24336|El Ramonal II (Los Manguitos)|04|011|0034
040110050|24336|La Florida (El Cuatro)|04|011|0050
040110051|24336|La Florida Tres|04|011|0051
040110055|24336|La Mojina|04|011|0055
040110059|24336|Las Delicias|04|011|0059
040110061|24336|Las Margaritas Dos|04|011|0061
040110064|24336|Los Jabines Uno|04|011|0064
040110065|24336|Los Limones|04|011|0065
040110077|24336|Rancho Alegre|04|011|0077
040110078|24336|Rancho Alegre Tres|04|011|0078
040110080|24336|San Antonio|04|011|0080
040110092|24336|Tres Reyes|04|011|0092
040110234|24336|Cuauhtémoc|04|011|0234
040110235|24336|Paraíso Nuevo|04|011|0235
040110238|24336|Pablo García|04|011|0238
040110241|24336|El Suspiro|04|011|0241
040110244|24336|El Naranjo|04|011|0244
040110245|24336|El Machetazo|04|011|0245
040110247|24336|California|04|011|0247
040110248|24336|El Limón|04|011|0248
040110770|24336|El Encanto|04|011|0770
040110775|24336|El Piedral (El Muerto)|04|011|0775
040110785|24336|Las Campanas|04|011|0785
040110789|24336|La Lucha|04|011|0789
040110794|24336|Los Cuatro Hermanos|04|011|0794
040110801|24336|San Lorenzo|04|011|0801
040110005|24337|Santa Rita|04|011|0005
040110029|24337|El Nuevo Ferrocarril|04|011|0029
040110030|24337|El Otoño|04|011|0030
040110082|24337|San Felipe|04|011|0082
040110093|24337|Triunfo Dos|04|011|0093
040110094|24337|Triunfo Uno|04|011|0094
040110219|24337|Corte Pajaral|04|011|0219
040110222|24337|Venustiano Carranza|04|011|0222
040110784|24337|La Amapola|04|011|0784
040110793|24337|Las Palmitas|04|011|0793
040110018|24338|El Borbonal|04|011|0018
040110054|24338|La Isla del Esfuerzo|04|011|0054
040110095|24338|Champas Quemadas|04|011|0095
040110196|24338|Benito Juárez Uno|04|011|0196
040110202|24338|Primer Presidente de México (Guadalupe Victoria)|04|011|0202
040110233|24338|Vicente Guerrero|04|011|0233
040110782|24338|General Francisco J. Mújica|04|011|0782
040110002|24342|El Manantial|04|011|0002
040110015|24342|Cinco Hermanos|04|011|0015
040110023|24342|El Diamante|04|011|0023
040110033|24342|El Pulguero|04|011|0033
040110035|24342|El Relámpago|04|011|0035
040110037|24342|El Tablón|04|011|0037
040110062|24342|Licenciado José Antonio González Curi|04|011|0062
040110063|24342|Los Cardenales|04|011|0063
040110071|24342|Nuevo Capricho|04|011|0071
040110072|24342|Nuevo Progreso|04|011|0072
040110079|24342|Río Caribe (Caribe)|04|011|0079
040110096|24342|San Cristóbal|04|011|0096
040110097|24342|El Último Esfuerzo|04|011|0097
040110214|24342|Las Palmas|04|011|0214
040110760|24342|Aguada Seca|04|011|0760
040110800|24342|Sal Si Puedes|04|011|0800
040110803|24342|Selva Negra|04|011|0803
040111277|24342|Nuevo Comalcalco|04|011|1277
040110028|24343|El Milagro|04|011|0028
040110043|24343|Emiliano Zapata III|04|011|0043
040110046|24343|Isla del Paraíso|04|011|0046
040110052|24343|La Guadalupe|04|011|0052
040110070|24343|Nueva Rosita II|04|011|0070
040110083|24343|San Fernando|04|011|0083
040110086|24343|San Román|04|011|0086
040110091|24343|Tres Hermanos|04|011|0091
040110207|24343|San Rafael del Río Caribe|04|011|0207
040110208|24343|Pablo Torres Burgos|04|011|0208
040110230|24343|El Pedregal|04|011|0230
040110231|24343|El Chinal|04|011|0231
040110764|24343|La Olla|04|011|0764
040110772|24343|El Marfil (Palo Alto)|04|011|0772
040110802|24343|Santa Lucía|04|011|0802
040111279|24343|San José de las Montañas|04|011|1279
040110001|24344|Tres de Mayo Tres|04|011|0001
040110014|24344|Champas Quemadas|04|011|0014
040110019|24344|El Calabozo|04|011|0019
040110022|24344|El Chechenal|04|011|0022
040110024|24344|El Encanto|04|011|0024
040110027|24344|El Fantasma (Los Chileros)|04|011|0027
040110032|24344|El Pimiental Dos|04|011|0032
040110048|24344|La Esperancita|04|011|0048
040110066|24344|Montecristo|04|011|0066
040110067|24344|Naranjito|04|011|0067
040110073|24344|Nuevo Tabasco|04|011|0073
040110205|24344|San Juan|04|011|0205
040111276|24344|Agua Azul|04|011|1276
040110003|24345|Miguel de la Madrid (El Pañuelo)|04|011|0003
040110011|24345|Balancancito|04|011|0011
040110021|24345|El Cayuco|04|011|0021
040110038|24345|El Taziztal|04|011|0038
040110042|24345|Emiliano Zapata|04|011|0042
040110056|24345|La Peregrina|04|011|0056
040110087|24345|San Román|04|011|0087
040110090|24345|Tres de Mayo Dos|04|011|0090
040110195|24345|La Misteriosa|04|011|0195
040110774|24345|El Mirador Primero|04|011|0774
040110790|24345|La Tómbola|04|011|0790
040110795|24345|Los Pollos|04|011|0795
040110799|24345|El Paraguas|04|011|0799
040111258|24345|El Destino|04|011|1258
040110008|24346|Arroyo del Julubal|04|011|0008
040110010|24346|Arroyo Veinticuatro de Mayo|04|011|0010
040110012|24346|Balankax|04|011|0012
040110013|24346|Blancas Mariposas|04|011|0013
040110017|24346|Delicias I|04|011|0017
040110057|24346|La Unión (Dos Arroyos)|04|011|0057
040110068|24346|Nego Eben-Ezer|04|011|0068
040110174|24346|El Desengaño|04|011|0174
040110761|24346|Alianza Productora|04|011|0761
040110762|24346|Arroyo de Cuba|04|011|0762
040110765|24346|Carlos Sansores Pérez (La Paz)|04|011|0765
040110804|24346|Solidaridad|04|011|0804
040110807|24346|Tres Reyes|04|011|0807
040111195|24346|San Dimas (Alianza II)|04|011|1195
040111262|24346|Adolfo López Mateos|04|011|1262
040111278|24346|Santa Rosa|04|011|1278
040110039|24347|El Tigre Dos|04|011|0039
040110041|24347|El Tulipán (El Imposible)|04|011|0041
040110044|24347|Francisco Villa|04|011|0044
040110076|24347|Rancho Alegre|04|011|0076
040110221|24347|Santo Domingo|04|011|0221
040110239|24347|San Miguel|04|011|0239
040110780|24347|Flor de Chiapas|04|011|0780
040110798|24347|Narcizo Mendoza|04|011|0798
040110806|24347|Tenancingo|04|011|0806
040110808|24347|Vicente Guerrero Número 2|04|011|0808
040111257|24347|Nueva Delicias II|04|011|1257
040110004|24348|Laguna la Perdida|04|011|0004
040110007|24348|Aguas Malas (Tres Cruces)|04|011|0007
040110009|24348|Arroyo San Juan (Las Golondrinas)|04|011|0009
040110049|24348|La Esperancita Dos|04|011|0049
040110053|24348|La Ilusión|04|011|0053
040110058|24348|Laguna San Ramón I|04|011|0058
040110206|24348|Héctor Pérez Morales|04|011|0206
040110209|24348|San Manuel Nuevo Canutillo|04|011|0209
040110212|24348|La Esmeralda|04|011|0212
040111259|24348|Ignacio Zaragoza (El Salvaje)|04|011|1259
040090252|24350|Escárcega Centro|04|009|0252
040090619|24350|Emiliano Zapata|04|009|0619
040090620|24350|Fátima|04|009|0620
040090621|24350|Sal Si Puedes II|04|009|0621
040090622|24350|Benito Juárez|04|009|0622
040090623|24350|Sal Si Puedes I|04|009|0623
040090624|24350|Jesús García|04|009|0624
040090625|24350|Concordia|04|009|0625
040090626|24350|10 de Mayo|04|009|0626
040090627|24350|Flores Magón|04|009|0627
040090628|24350|Revolución|04|009|0628
040090629|24350|Morelos|04|009|0629
040090630|24350|Fertimex|04|009|0630
040090631|24350|Esperanza|04|009|0631
040090632|24350|Unidad Esfuerzo y Trabajo II|04|009|0632
040090633|24350|Unidad Esfuerzo y Trabajo I|04|009|0633
040090634|24350|I. Zaragoza|04|009|0634
040090635|24350|C. Salinas de Gortari|04|009|0635
040091249|24350|Vicente Fox|04|009|1249
040091250|24350|La Jeringa|04|009|1250
040090001|24353|Miguel Hidalgo (Caracol)|04|009|0001
040090003|24353|California|04|009|0003
040090005|24353|Colonia San Francisco (El Cinco)|04|009|0005
040090006|24353|El Arbolito|04|009|0006
040090007|24353|El Caracol|04|009|0007
040090258|24353|Matamoros|04|009|0258
040090200|24354|Don Samuel|04|009|0200
040090254|24354|División del Norte|04|009|0254
040090259|24354|Haro|04|009|0259
040091201|24355|El Calabozo|04|009|1201
040090012|24356|El Gallo Samuel (El Gallito)|04|009|0012
040090021|24357|Ignacio Magdaleno|04|009|0021
040090024|24357|La Misteriosa|04|009|0024
040090186|24357|Luna|04|009|0186
040090193|24357|Francisco I. Madero|04|009|0193
040090197|24357|Benito Juárez (La Polla)|04|009|0197
040091104|24357|La Flor|04|009|1104
040090009|24358|El Corriental|04|009|0009
040090011|24358|El Gallo|04|009|0011
040090014|24358|El Pozo|04|009|0014
040090015|24358|El Retiro|04|009|0015
040090035|24358|Santa Cruz|04|009|0035
040090036|24358|Santa Isabel|04|009|0036
040090194|24358|Guadalajara|04|009|0194
040091099|24358|El Huiro|04|009|1099
040090032|24364|San José|04|009|0032
040090272|24364|La Esperanza|04|009|0272
040090273|24364|Kilómetro Setenta y Cuatro|04|009|0273
040090335|24364|Juan Escutia|04|009|0335
040091202|24364|Juan de la Barrera|04|009|1202
040090022|24365|La Constancia|04|009|0022
040090030|24365|San Carlos|04|009|0030
040090034|24365|San Pedro|04|009|0034
040090260|24365|La Victoria|04|009|0260
040090018|24366|El Zacatecano|04|009|0018
040090026|24366|María de la Luz|04|009|0026
040090033|24366|San Luis|04|009|0033
040090010|24367|El Diamante|04|009|0010
040090016|24367|El Rosario (Puerto Escondido)|04|009|0016
040090023|24367|La Fe|04|009|0023
040090031|24367|San José|04|009|0031
040090037|24367|Santa Martha (El Naranjito)|04|009|0037
040090278|24367|Nuevo Progreso Dos|04|009|0278
040090020|24368|Herradero|04|009|0020
040090028|24368|San Alejandro|04|009|0028
040090280|24368|José de la Cruz Blanco|04|009|0280
040090281|24368|Kilómetro Treinta y Seis|04|009|0281
040091103|24368|La Asunción|04|009|1103
040090004|24369|Chambalita|04|009|0004
040090013|24369|El Hular|04|009|0013
040090017|24369|El Tornillo|04|009|0017
040090027|24369|Miguel Hidalgo y Costilla|04|009|0027
040090282|24369|La Chiquita|04|009|0282
040090366|24370|Altamira de Zináparo|04|009|0366
040090368|24370|Silvituc|04|009|0368
040090370|24370|Centenario|04|009|0370
040091101|24370|Flor de Chiapas|04|009|1101
040091105|24370|Laguna Grande|04|009|1105
040091106|24370|José López Portillo|04|009|1106
040091107|24370|Benito Juárez Número 3|04|009|1107
040090019|24372|Emiliano Zapata|04|009|0019
040090373|24373|Las Maravillas|04|009|0373
040090374|24373|Chan Laguna|04|009|0374
040091100|24373|El Jobal|04|009|1100
040090264|24374|La Libertad|04|009|0264
040090371|24374|Justicia Social|04|009|0371
040090955|24374|Adolfo López Mateos|04|009|0955
040091200|24374|El Lechugal|04|009|1200
040091204|24374|Nuevo Campeche (Tres Aguadas)|04|009|1204
040090257|24375|Belén|04|009|0257
040091102|24375|General Rodolfo Fierros|04|009|1102
040091203|24375|Miguel de la Madrid|04|009|1203
040090002|24376|Alto Río Caribe|04|009|0002
040090008|24377|El Conejo|04|009|0008
040040002|24400|Tierra y Libertad|04|004|0002
040040003|24400|Lindavista|04|004|0003
040040306|24400|Champotón Centro|04|004|0306
040040508|24400|Cristóbal Colon|04|004|0508
040040509|24400|Pozo del Chenpek|04|004|0509
040040511|24400|La Cruz|04|004|0511
040040513|24400|Las Brisas|04|004|0513
040040515|24400|INFONAVIT Miraflores|04|004|0515
040040516|24400|Moch-Cohuo|04|004|0516
040040517|24400|Nueva Esperanza|04|004|0517
040040518|24400|Nueva Esperanza INFONAVIT|04|004|0518
040040519|24400|Plan-chac|04|004|0519
040040520|24400|Pozo del Monte|04|004|0520
040040526|24400|San Patricio|04|004|0526
040040529|24400|Tajonal|04|004|0529
040040530|24400|Venustiano Carranza|04|004|0530
040040972|24400|Arenal|04|004|0972
040040973|24400|Arrocera|04|004|0973
040040974|24400|Aserradero|04|004|0974
040040975|24400|Avenida|04|004|0975
040040976|24400|Cañaveral|04|004|0976
040040977|24400|Cardenal|04|004|0977
040040978|24400|Carolinas|04|004|0978
040040979|24400|Centenario|04|004|0979
040040980|24400|Cocal|04|004|0980
040040981|24400|Concepción Duran|04|004|0981
040040983|24400|Cuauhtémoc|04|004|0983
040040984|24400|Flamboyan|04|004|0984
040040985|24400|Guadalupe|04|004|0985
040040986|24400|Guadalupe Victoria|04|004|0986
040040987|24400|INFONAVIT|04|004|0987
040040988|24400|ISSSTE|04|004|0988
040040989|24400|La Playa|04|004|0989
040040990|24400|La Santa|04|004|0990
040040992|24400|Las Mercedes|04|004|0992
040040993|24400|Las Palomas|04|004|0993
040040994|24400|Laureles|04|004|0994
040040995|24400|Lázaro Cárdenas|04|004|0995
040040996|24400|Malecón|04|004|0996
040040997|24400|Manguitos|04|004|0997
040040998|24400|Nueva Jerusalén|04|004|0998
040040999|24400|Paraíso|04|004|0999
040041000|24400|Pedregal|04|004|1000
040041002|24400|Puente Viejo|04|004|1002
040041004|24400|Ulises Sansores|04|004|1004
040041032|24400|Huanal|04|004|1032
040041033|24400|Camaroncito|04|004|1033
040041034|24400|Microondas|04|004|1034
040041183|24400|Mirador|04|004|1183
040041265|24400|ISSFAM|04|004|1265
040040308|24402|Ulumal|04|004|0308
040040309|24402|Moquel|04|004|0309
040040311|24402|El Zapote|04|004|0311
040040958|24402|Canasayab|04|004|0958
040041096|24402|San Antonio del Río|04|004|1096
040040313|24404|San José Carpizo Uno (San Fernando)|04|004|0313
040040314|24404|San José Carpizo Dos|04|004|0314
040040317|24410|Ley Federal de Reforma Agraria|04|004|0317
040040318|24410|San Luis Carpizo|04|004|0318
040040319|24410|San Pablo|04|004|0319
040040320|24410|Vicente Guerrero|04|004|0320
040041095|24410|Punta Xen|04|004|1095
040041181|24410|Villamar|04|004|1181
040041215|24410|La Fraternidad|04|004|1215
040041216|24410|San Felipe|04|004|1216
040041217|24410|San Marcos|04|004|1217
040041219|24410|El Caporal|04|004|1219
040041220|24410|La Estrella|04|004|1220
040040005|24411|Maya Tecún II|04|004|0005
040040321|24411|López Mateos (La Desconfianza)|04|004|0321
040040322|24411|Pustunich|04|004|0322
040040329|24411|San Antonio Yacasay|04|004|0329
040040378|24411|Maya Tecún I|04|004|0378
040041177|24411|Nueva Esperanza Número 2 (Santo Domingo)|04|004|1177
040040324|24413|San Pablo Pixtún|04|004|0324
040041221|24413|Valle Hermoso|04|004|1221
040040276|24414|Pixoyal|04|004|0276
040040325|24414|Dzacabuchén|04|004|0325
040040326|24414|José María Morelos y Pavón (El Pocito)|04|004|0326
040040327|24414|José María Morelos y Pavón|04|004|0327
040040336|24414|Revolución|04|004|0336
040041084|24414|Aquiles Serdán (Chuiná)|04|004|1084
040041088|24414|General Ortiz Ávila|04|004|1088
040041091|24414|Lázaro Cárdenas|04|004|1091
040041175|24414|Nueva Esperanza Uno (San Miguel Tobías)|04|004|1175
040041218|24414|Monte Bravo|04|004|1218
040040328|24415|Carrillo Puerto|04|004|0328
040040330|24416|Xbacab|04|004|0330
040040275|24418|Cinco de Febrero|04|004|0275
040040277|24418|Miguel Colorado|04|004|0277
040040334|24419|Profesor Graciano Sánchez|04|004|0334
040040337|24420|Arellano|04|004|0337
040040345|24420|Santa Cruz de Rovira|04|004|0345
040040339|24421|Villa de Guadalupe|04|004|0339
040040341|24421|San Juan Carpizo|04|004|0341
040041097|24421|San Miguel|04|004|1097
040041178|24421|Cañaveral|04|004|1178
040041179|24423|Nuevo Michoacán|04|004|1179
040040347|24424|Nayarit Castellot|04|004|0347
040040372|24424|Coronel Ortiz Ávila|04|004|0372
040041092|24424|López Portillo 2 (Nilun)|04|004|1092
040041098|24424|Valle de Quetzalcóatl|04|004|1098
040040349|24440|Hool|04|004|0349
040041174|24440|Santo Domingo Kesté|04|004|1174
040040350|24441|Carlos Salinas de Gortari|04|004|0350
040041085|24441|Buenaventura|04|004|1085
040041087|24441|Dzitbalché Castellot|04|004|1087
040040343|24443|Chac Chaito|04|004|0343
040040344|24443|Yohaltún|04|004|0344
040041083|24443|Ah Kim Pech|04|004|1083
040041086|24443|Chilam Balam|04|004|1086
040041089|24443|Ignacio López Rayón|04|004|1089
040041090|24443|Kukulkán|04|004|1090
040041093|24443|Miguel Allende|04|004|1093
040041094|24443|Moch Cohuó|04|004|1094
040041180|24443|La Providencia|04|004|1180
040041222|24443|Nuevo Paraíso [Módulo]|04|004|1222
040040351|24450|Sihochac|04|004|0351
040040312|24451|El Porvenir|04|004|0312
040040352|24451|La Joya|04|004|0352
040041256|24451|La Noria|04|004|1256
040040354|24459|Ciudad del Sol|04|004|0354
040120001|24460|Seybaplaya Centro|04|012|0001
040120002|24460|Fátima|04|012|0002
040120003|24460|Carmelita|04|012|0003
040120004|24460|San Isidro|04|012|0004
040120005|24460|Hornos|04|012|0005
040120006|24460|Tizimín|04|012|0006
040120007|24460|Santa Cruz|04|012|0007
040120008|24460|Santa Clara|04|012|0008
040120009|24460|Guadalupe|04|012|0009
040120010|24460|La Jimba|04|012|0010
040120011|24460|Cristo Rey|04|012|0011
040120012|24460|16 de Septiembre|04|012|0012
040120013|24460|Frutales|04|012|0013
040120014|24460|San Rafael|04|012|0014
040120019|24460|Siho Playa (Hotel)|04|012|0019
040120020|24460|Costa Blanca|04|012|0020
040120021|24460|El Sombrerón|04|012|0021
040120015|24462|Nuevo Amanecer|04|012|0015
040120016|24462|Villa Madero|04|012|0016
040120018|24462|Haltunchén|04|012|0018
040120017|24464|Xkeulil|04|012|0017
040020379|24500|Lerma Centro|04|002|0379
040020381|24500|Lázaro Cárdenas|04|002|0381
040020702|24500|Chiapaneca|04|002|0702
040020703|24500|Tepeyac|04|002|0703
040020704|24500|Las Brisas|04|002|0704
040020705|24500|San Antonio|04|002|0705
040020706|24500|Tres Cruces|04|002|0706
040020707|24500|Marañon|04|002|0707
040020708|24500|Becan|04|002|0708
040020709|24500|Playa Bonita|04|002|0709
040020710|24500|Pesquera|04|002|0710
040020711|24500|Satélite|04|002|0711
040020712|24500|Huayita|04|002|0712
040020713|24500|Lerma|04|002|0713
040020714|24500|Kila|04|002|0714
040021073|24500|Espíritu Santo|04|002|1073
040021074|24500|La Guadalupana|04|002|1074
040021075|24500|Secretaria de Marina|04|002|1075
040021076|24500|San Bartolo|04|002|1076
040021193|24505|San Lorenzo|04|002|1193
040020383|24517|Castamay|04|002|0383
040020051|24520|Campestre Los Almendros|04|002|0051
040020384|24520|China|04|002|0384
040020385|24520|Hobomo|04|002|0385
040020386|24520|Mucuychakan|04|002|0386
040020391|24520|Uayamón|04|002|0391
040020389|24522|San Agustin Ola|04|002|0389
040021190|24523|Chulbac|04|002|1190
040020392|24532|Pocyaxum|04|002|0392
040020062|24536|Sierra Verde de Cayal|04|002|0062
040020393|24536|Uzahzil-Edzná (Nohyaxché)|04|002|0393
040020394|24537|Nohakal|04|002|0394
040020107|24540|Pueblo Nuevo|04|002|0107
040020396|24540|Cayal|04|002|0396
040020397|24540|San Antonio Cayal|04|002|0397
040020399|24550|Chencollí (Citro-Kampeche)|04|002|0399
040020400|24550|Tikinmul|04|002|0400
040021119|24550|San Antonio Bobolá|04|002|1119
040021191|24550|Miguel Alemán (X- Campeu)|04|002|1191
040020401|24552|Nilchi|04|002|0401
040021117|24553|San Camilo (Chencollí)|04|002|1117
040020402|24557|Crucero OXA|04|002|0402
040020382|24560|Río Verde|04|002|0382
040020404|24560|Hampolol|04|002|0404
040020405|24560|Imi|04|002|0405
040020406|24560|San Francisco Koben|04|002|0406
040020407|24561|CERESO San Francisco Kobén|04|002|0407
040020408|24562|Bethania|04|002|0408
040020409|24564|Chemblas|04|002|0409
040020041|24570|San Isidro|04|002|0041
040020346|24570|Kikab|04|002|0346
040020390|24570|Lubná|04|002|0390
040020411|24570|Alfredo V. Bonfil|04|002|0411
040020413|24570|Melchor Ocampo|04|002|0413
040020414|24570|Tixmucuy|04|002|0414
040020419|24570|Bolonchén Cahuich|04|002|0419
040021118|24570|Nuevo Pénjamo|04|002|1118
040021285|24570|Nueva Esperanza|04|002|1285
040020415|24572|Pich|04|002|0415
040020416|24572|San Luciano|04|002|0416
040021120|24573|San Miguel Allende|04|002|1120
040021121|24573|Carlos Cano Cruz (Los Tlaxcaltecas)|04|002|1121
040021280|24573|Los Laureles|04|002|1280
040020395|24574|Quetzal Edzná|04|002|0395
040021192|24574|La Libertad|04|002|1192
040020418|24575|Adolfo Ruiz Cortinez|04|002|0418
040060420|24600|Hopelchen Centro|04|006|0420
040060604|24600|El Tamarindo|04|006|0604
040060605|24600|Santa Cruz|04|006|0605
040060606|24600|Campo de Aviación|04|006|0606
040060607|24600|Magisterial|04|006|0607
040060608|24600|Norte|04|006|0608
040060609|24600|San Román|04|006|0609
040060610|24600|San Isidro|04|006|0610
040060611|24600|San Luis|04|006|0611
040060612|24600|San Martín|04|006|0612
040060656|24600|Dolores Lanz|04|006|0656
040060421|24604|El Poste|04|006|0421
040060422|24604|San Juan Bautista Sahcabchén|04|006|0422
040060424|24604|Ich-Ek|04|006|0424
040060427|24604|Crucero San Luis|04|006|0427
040060428|24604|San Francisco Suc-Tuc|04|006|0428
040061268|24604|Santa Fe|04|006|1268
040060429|24605|Xcupil|04|006|0429
040060430|24606|Becanchén|04|006|0430
040060431|24607|Komchén|04|006|0431
040060432|24609|Pakchén|04|006|0432
040060433|24610|Chencoh|04|006|0433
040060435|24611|Dzibalchén|04|006|0435
040060436|24612|Cancabchén|04|006|0436
040060457|24612|Francisco J. Mújica (Los Ucán)|04|006|0457
040061198|24612|San Isidro|04|006|1198
040060438|24613|Chunchintok|04|006|0438
040060439|24615|Ukum|04|006|0439
040060464|24615|Xmejía|04|006|0464
040060425|24620|Xcalot Akal|04|006|0425
040060437|24620|San Bernardo Huechil|04|006|0437
040060440|24620|Bolonchen de Rejón|04|006|0440
040060441|24620|Xcanahaltún Huechil Unidos|04|006|0441
040061122|24620|Katab|04|006|1122
040060443|24622|Chunyaxnic|04|006|0443
040060444|24622|San Antonio Yaxché|04|006|0444
040060476|24622|Chuncedro|04|006|0476
040060477|24622|Xculoc|04|006|0477
040060426|24623|Yaxché Akal|04|006|0426
040061124|24623|Rancho Sosa|04|006|1124
040061199|24624|Campo Menonita|04|006|1199
040100001|24640|Bellavista|04|010|0001
040100002|24640|10 de Mayo|04|010|0002
040100445|24640|Xpujil|04|010|0445
040101290|24640|Bugambilias|04|010|1290
040101291|24640|Jardines|04|010|1291
040101292|24640|Aviación|04|010|1292
040101293|24640|Fundadores|04|010|1293
040100375|24643|Becan|04|010|0375
040100826|24643|Chicana|04|010|0826
040100833|24643|El Chichonal|04|010|0833
040100840|24643|Heriberto Jara Corona|04|010|0840
040100862|24643|Plan de San Luis|04|010|0862
040100872|24643|Valentín Gómez Farias|04|010|0872
040100447|24644|Nuevo Becal|04|010|0447
040100449|24644|Zoh-laguna (alvaro Obregón)|04|010|0449
040100816|24644|Bel-ha|04|010|0816
040100828|24644|Dos Lagunas|04|010|0828
040100836|24644|El Refugio|04|010|0836
040100855|24644|Nueva Vida|04|010|0855
040100865|24644|Ricardo Flores Magón|04|010|0865
040100868|24644|Tepeyac|04|010|0868
040100871|24644|Unión 20 de Junio|04|010|0871
040100448|24645|20 de Noviembre|04|010|0448
040100450|24645|Cristóbal Colon|04|010|0450
040100451|24645|Gral. Manuel Castilla Brito Km. 17|04|010|0451
040100453|24645|ing. Ricardo Payro Jene (polo Norte)|04|010|0453
040100456|24645|Los Ángeles|04|010|0456
040100820|24645|Caña Brava|04|010|0820
040100831|24645|Eugenio Echeverría Castellot (El Carrizal)|04|010|0831
040100832|24645|El Carmen II|04|010|0832
040100834|24645|El Manantial|04|010|0834
040100835|24645|El Porvenir|04|010|0835
040100838|24645|Felipe Ángeles|04|010|0838
040100839|24645|Gustavo Díaz Ordaz (San Antonio Soda)|04|010|0839
040100841|24645|Hermenegildo Galeana|04|010|0841
040100846|24645|San José|04|010|0846
040100848|24645|La Lucha|04|010|0848
040100849|24645|Lucha|04|010|0849
040100850|24645|La Victoria|04|010|0850
040100851|24645|La Virgencita de La Candelaria|04|010|0851
040100854|24645|Niños Héroes|04|010|0854
040100856|24645|Nuevo Campanario|04|010|0856
040100857|24645|Nuevo Progreso 3|04|010|0857
040100869|24645|Tomas Aznar Barbachano|04|010|0869
040100870|24645|Unidad y Trabajo|04|010|0870
040101207|24645|21 de Mayo (Lechugal)|04|010|1207
040101209|24645|Narciso Mendoza|04|010|1209
040100454|24646|Lázaro Cárdenas 2 (ojo de Agua)|04|010|0454
040100455|24646|Los Alacranes|04|010|0455
040100810|24646|16 de Septiembre|04|010|0810
040100817|24646|Bella Unión de Veracruz|04|010|0817
040100818|24646|Blasillo|04|010|0818
040100821|24646|Carlos A Madrazo|04|010|0821
040100824|24646|Cerro de las Flores (Sta. Rosa)|04|010|0824
040100837|24646|El Tesoro|04|010|0837
040100844|24646|Josefa Ortíz de Domínguez (Icaiché)|04|010|0844
040100852|24646|Los Tambores de Emiliano Zapata|04|010|0852
040100853|24646|Manuel Cresencio Rejón|04|010|0853
040100858|24646|Nuevo San José|04|010|0858
040100859|24646|Nuevo Veracruz|04|010|0859
040100860|24646|Pioneros del Río Xnohá|04|010|0860
040100864|24646|Quiche las Pailas|04|010|0864
040101205|24646|Plan de Ayala (5 de Mayo)|04|010|1205
040100809|24647|11 de Mayo|04|010|0809
040100814|24647|Arroyo Negro|04|010|0814
040100829|24647|Dos Naciones|04|010|0829
040100843|24647|José Ma. Morelos y Pavón|04|010|0843
040100845|24647|Justo Sierra Méndez|04|010|0845
040100866|24647|San Miguel|04|010|0866
040100867|24647|Santo Domingo|04|010|0867
040100874|24647|Dos Lagunas|04|010|0874
040101206|24647|Ley de Fomento Agropecuario (La Misteriosa)|04|010|1206
040100822|24648|Centauro del Norte|04|010|0822
040100847|24648|La Guadalupe|04|010|0847
040100365|24653|Nuevo Conhuas|04|010|0365
040100815|24653|Balanku|04|010|0815
040100369|24654|Felipe Ángeles II|04|010|0369
040100830|24654|Ingeniero Eugenio Echeverría Castellot|04|010|0830
040100863|24654|Puebla de Morelia|04|010|0863
040101208|24654|Emiliano Zapata|04|010|1208
040100823|24656|Central Chiclera Villahermosa|04|010|0823
040100348|24658|Xbonil|04|010|0348
040100362|24658|Constitución|04|010|0362
040100363|24658|Pablo Garcia|04|010|0363
040100367|24658|Santa Lucia|04|010|0367
040100825|24658|Concepción|04|010|0825
040060458|24660|Vicente Guerrero|04|006|0458
040060459|24663|Ramón Corona|04|006|0459
040060461|24667|X-Canhá|04|006|0461
040061123|24667|Nuevo Chan Yaxché|04|006|1123
040060434|24668|Chun-Ek|04|006|0434
040060460|24668|Pachuitz|04|006|0460
040060462|24668|Chan-Chen|04|006|0462
040060463|24670|Xmabén|04|006|0463
040080465|24700|Tenabo Centro|04|008|0465
040080948|24703|Jacinto Canek|04|008|0948
040080949|24704|San Pedro|04|008|0949
040080950|24705|Procesadora|04|008|0950
040080951|24706|Lazareto|04|008|0951
040080952|24706|Esperanza|04|008|0952
040080953|24706|Ana María Farias|04|008|0953
040080954|24707|Guadalupe|04|008|0954
040080466|24720|Kankí|04|008|0466
040081226|24723|Chilib|04|008|1226
040080467|24730|Tinún|04|008|0467
040080001|24732|Santa Rita Corralché|04|008|0001
040080468|24732|Emiliano Zapata|04|008|0468
040081228|24732|San Pedro Corralché|04|008|1228
040081225|24733|Nachehá|04|008|1225
040081189|24734|Xkuncheil|04|008|1189
040081188|24740|Santa Rosa|04|008|1188
040081223|24746|Orizaba|04|008|1223
040050469|24800|Centro Hecelchakán|04|005|0469
040050510|24800|La Conquista|04|005|0510
040050521|24800|San Antonio|04|005|0521
040050523|24800|San Francisco|04|005|0523
040050525|24800|San Juan|04|005|0525
040051186|24800|Abraham Azar|04|005|1186
040051187|24800|Las Gardenias|04|005|1187
040050471|24810|Centro Pomuch|04|005|0471
040050505|24810|Benito Juárez|04|005|0505
040050507|24810|Colonia Nueva|04|005|0507
040050512|24810|La Soledad|04|005|0512
040050522|24810|San Diego|04|005|0522
040050524|24810|San Jerónimo|04|005|0524
040050527|24810|San Pedro|04|005|0527
040050528|24810|Santa Cristina|04|005|0528
040050531|24810|Villa Lucrecia|04|005|0531
040050472|24813|Zodzil|04|005|0472
040050474|24820|Cumpich|04|005|0474
040050475|24826|Dzotchén|04|005|0475
040050001|24828|Chicmuc|04|005|0001
040050478|24828|Nohalal|04|005|0478
040050479|24830|Pocboc|04|005|0479
040051108|24830|Blanca Flor Hacienda|04|005|1108
040050480|24831|Chunkanán|04|005|0480
040050481|24836|Blanca Flor|04|005|0481
040050482|24837|Santa Cruz|04|005|0482
040051109|24837|San Felipe Tikín|04|005|1109
040050483|24839|Dzitnup|04|005|0483
040050484|24860|Campo Menonita Yalnón|04|005|0484
040051112|24863|Monte Bello|04|005|1112
040051185|24863|Campo Menonita Chaví Número Uno|04|005|1185
040010485|24900|Calkini Centro|04|001|0485
040010636|24902|Fátima|04|001|0636
040010637|24902|FOVISSSTE|04|001|0637
040010638|24902|San Isidro|04|001|0638
040010639|24902|San Juan|04|001|0639
040010642|24903|La Concepción|04|001|0642
040010643|24903|San Miguel Kukab|04|001|0643
040010644|24903|Guadalupe|04|001|0644
040010646|24903|San Luisito|04|001|0646
040010647|24903|San Martín|04|001|0647
040010640|24904|San Luis Obispo|04|001|0640
040010641|24904|Las Flores|04|001|0641
040010645|24904|Kilakan|04|001|0645
040010487|24905|Tepakan|04|001|0487
040010004|24910|El Gato Negro|04|001|0004
040010005|24910|San Román|04|001|0005
040010488|24910|Nunkini|04|001|0488
040010497|24913|Santa Cruz Pueblo|04|001|0497
040010498|24913|San Antonio Sahcabchén|04|001|0498
040010490|24914|Tankuche|04|001|0490
040010499|24914|San Agustín Chunhuás|04|001|0499
040010502|24914|Concepción|04|001|0502
040011116|24914|Xkakoch|04|001|1116
040010491|24915|Pucnachen|04|001|0491
040010492|24915|Santa María|04|001|0492
040010493|24916|Santa Cruz|04|001|0493
040010494|24917|San Nicolás|04|001|0494
040010495|24919|Isla Arena|04|001|0495
040130001|24920|Dzitbalché|04|013|0001
040130002|24920|San Feliciano|04|013|0002
040130003|24920|Solidaridad|04|013|0003
040130004|24925|Bacabchén|04|013|0004
040130005|24929|Chacnichén (El Pozo)|04|013|0005
040010503|24930|Bécal Centro|04|001|0503
040010001|24933|Los Tres Reyes|04|001|0001
040010966|24933|Fátima|04|001|0966
040010961|24934|Carlos Rivas|04|001|0961
040010962|24935|Pablo Garcia|04|001|0962
040010964|24935|Limón|04|001|0964
040010965|24935|Santa Cruz|04|001|0965
040010968|24935|El Pocito|04|001|0968
040010963|24936|San Diego|04|001|0963
040010967|24936|Estación|04|001|0967
040011114|24940|San Roque Xnolán|04|001|1114
