#clave|nombre|orden
nuevo|Validado|0|1
seleccionado|Seleccionado|1|1
en-proceso|En proceso|2|1
pagado|Pagado|3|1
no-pagado-cancelado|No pagado cancelado|4|0
no-pagado-devuelto|No pagado devuelto|5|0
pendiente|Pendiente|6|0
no-valido|No válido|7|0