#clave|nombre|orden
ninguno|Ninguno|0
akateko|Akateko|1
amuzgo|Amuzgo|2
awakateko|Awakateko|3
ayapaneco|Ayapaneco|4
cora|Cora|5
cucapa|Cucapá|6
cuicateco|Cuicateco|7
chatino|Chatino|8
chichimeco-jonaz|Chichimeco jonaz|9
chinanteco|Chinanteco|10
chocholteco|Chocholteco|11
chontal-oaxaca|Chontal de Oaxaca|12
chontal-tabasco|Chontal de Tabasco|13
chuj|Chuj|14
chol|Ch’ol|15
guarijio|Guarijío|16
huasteco|Huasteco|17
huave|Huave|18
huichol|Huichol|19
ixcateco|Ixcateco|20
ixil|Ixil|21
jakalteko|Jakalteko|22
kaqchikel|Kaqchikel|23
kickapoo|Kickapoo|24
kiliwa|Kiliwa|25
Kumiai|Kumiai|26
kuahl|Ku’ahl|27
kiche|K’iche’|28
lacandon|Lacandón|29
mam|Mam|30
matlatzinca|Matlatzinca|31
maya|Maya|32
mayo|Mayo|33
mazahua|Mazahua|34
mazateco|Mazateco|35
mixe|Mixe|36
mixteco|Mixteco|37
nahuatl|Náhuatl|38
oluteco|Oluteco|39
otomi|Otomí|40
paipai|Paipai|41
pame|Pame|42
papago|Pápago|43
pima|Pima|44
popoloca|Popoloca|45
popoluca-sierra|Popoluca de la Sierra|46
qatok|Qato’k|47
qanjobal|Q’anjob’al|48
qeqchí|Q’eqchí’|49
sayulteco|Sayulteco|50
seri|Seri|51
tarahumara|Tarahumara|52
tarasco|Tarasco|53
teko|Teko|54
tepehua|Tepehua|55
tepehuano-norte|Tepehuano del norte|56
tepehuano-sur|Tepehuano del sur|57
texistepequeño|Texistepequeño|58
tojolabal|Tojolabal|59
totonaco|Totonaco|60
triqui|Triqui|61
tlahuica|Tlahuica|62
tlapaneco|Tlapaneco|63
tseltal|Tseltal|64
tsotsil|Tsotsil|65
yaqui|Yaqui|66
zapoteco|Zapoteco|67
Zoque|Zoque|68
