#clave|nombre|orden|activo
cobertura-put|Cobertura PUT|0|true
cobertura-put-otc|Cobertura PUT OTC|1|true
precio-cerrado|CCV a precio cerrado|2|true
posicion-futuros|Posición de futuros|3|true
cobertura|Cobertura|4|false
ninguno|Ninguno|5|false
